PCBNEW-LibModule-V1  
# encoding utf-8
Units mm
$INDEX
SOIC127P601X173-9N
$EndINDEX
$MODULE SOIC127P601X173-9N
Po 0 0 0 15 00000000 00000000 ~~
Li SOIC127P601X173-9N
Cd 
Sc 00000000
At SMD
Op 0 0 0
.SolderMask 0
.SolderPaste 0
T0 -0.64433 -4.09108 1.40071 1.40071 0 0.05 N V 21 "SOIC127P601X173-9N"
T1 -0.55508 3.81148 1.40017 1.40017 0 0.05 N V 21 "VAL**"
DP 0 0 0 0 4 0 19
Dl -0.806187 -1.043
Dl 0.806 -1.043
Dl 0.806 1.04324
Dl -0.806187 1.04324
DS -2 -2.5 2 -2.5 0.127 24
DS 2 -2.5 2 2.5 0.127 24
DS 2 2.5 -2 2.5 0.127 24
DS -2 2.5 -2 -2.5 0.127 24
DS -2 -2.5 2 -2.5 0.127 21
DS 2 2.5 -2 2.5 0.127 21
DS -2.25 -2.75 2.25 -2.75 0.05 26
DS 2.25 -2.75 2.25 -2.46 0.05 26
DS 2.25 -2.46 3.71 -2.46 0.05 26
DS 3.71 -2.46 3.71 2.46 0.05 26
DS 3.71 2.46 2.25 2.46 0.05 26
DS 2.25 2.46 2.25 2.75 0.05 26
DS 2.25 2.75 -2.25 2.75 0.05 26
DS -2.25 2.75 -2.25 2.46 0.05 26
DS -2.25 2.46 -3.71 2.46 0.05 26
DS -3.71 2.46 -3.71 -2.46 0.05 26
DS -3.71 -2.46 -2.25 -2.46 0.05 26
DS -2.25 -2.46 -2.25 -2.75 0.05 26
DC -4.28 -1.91 -4.18 -1.91 0.2 21
DC -1.58 -1.91 -1.48 -1.91 0.2 24
$PAD
Sh "1" R 1.96 0.6 0 0 0
At SMD N 00888000
.SolderMask 0
.SolderPaste 0
Ne 0 ""
Po -2.475 -1.905
$EndPAD
$PAD
Sh "2" R 1.96 0.6 0 0 0
At SMD N 00888000
.SolderMask 0
.SolderPaste 0
Ne 0 ""
Po -2.475 -0.635
$EndPAD
$PAD
Sh "3" R 1.96 0.6 0 0 0
At SMD N 00888000
.SolderMask 0
.SolderPaste 0
Ne 0 ""
Po -2.475 0.635
$EndPAD
$PAD
Sh "4" R 1.96 0.6 0 0 0
At SMD N 00888000
.SolderMask 0
.SolderPaste 0
Ne 0 ""
Po -2.475 1.905
$EndPAD
$PAD
Sh "5" R 1.96 0.6 0 0 0
At SMD N 00888000
.SolderMask 0
.SolderPaste 0
Ne 0 ""
Po 2.475 1.905
$EndPAD
$PAD
Sh "6" R 1.96 0.6 0 0 0
At SMD N 00888000
.SolderMask 0
.SolderPaste 0
Ne 0 ""
Po 2.475 0.635
$EndPAD
$PAD
Sh "7" R 1.96 0.6 0 0 0
At SMD N 00888000
.SolderMask 0
.SolderPaste 0
Ne 0 ""
Po 2.475 -0.635
$EndPAD
$PAD
Sh "8" R 1.96 0.6 0 0 0
At SMD N 00888000
.SolderMask 0
.SolderPaste 0
Ne 0 ""
Po 2.475 -1.905
$EndPAD
$PAD
Sh "9" R 2.55 3.3 0 0 0
At SMD N 00888000
.SolderMask 0
Ne 0 ""
Po 0 0
$EndPAD
$EndMODULE SOIC127P601X173-9N
