(module WJ250B-3.50-5P (layer F.Cu) (tedit 5C46FEC5)
  (fp_text reference REF** (at -10.5 0 90) (layer F.SilkS)
    (effects (font (size 1 1) (thickness 0.15)))
  )
  (fp_text value WJ250B-3.50-5P (at 0 0) (layer F.Fab)
    (effects (font (size 1 1) (thickness 0.15)))
  )
  (fp_line (start -9.5 6) (end 9.5 6) (layer F.SilkS) (width 0.15))
  (fp_line (start 9.5 -6) (end -9.5 -6) (layer F.SilkS) (width 0.15))
  (fp_line (start -9.5 -6) (end -9.5 6) (layer F.SilkS) (width 0.15))
  (fp_line (start -9.5 -6) (end 9.5 -6) (layer F.CrtYd) (width 0.05))
  (fp_line (start 9.5 -6) (end 9.5 6) (layer F.CrtYd) (width 0.05))
  (fp_line (start 9.5 6) (end -9.5 6) (layer F.CrtYd) (width 0.05))
  (fp_line (start -9.5 6) (end -9.5 -6) (layer F.CrtYd) (width 0.05))
  (fp_line (start 9.5 6) (end 9.5 -6) (layer F.SilkS) (width 0.15))
  (pad 1 thru_hole circle (at -7 2.5) (size 2 2) (drill 1.1) (layers *.Cu *.Mask))
  (pad 2 thru_hole circle (at -3.5 -2.5) (size 2 2) (drill 1.1) (layers *.Cu *.Mask))
  (pad 3 thru_hole circle (at 0 2.5) (size 2 2) (drill 1.1) (layers *.Cu *.Mask))
  (pad 4 thru_hole circle (at 3.5 -2.5) (size 2 2) (drill 1.1) (layers *.Cu *.Mask))
  (pad 5 thru_hole circle (at 7 2.5) (size 2 2) (drill 1.1) (layers *.Cu *.Mask))
)
