EESchema Schematic File Version 4
LIBS:regulator-cache
EELAYER 29 0
EELAYER END
$Descr A4 11693 8268
encoding utf-8
Sheet 1 1
Title ""
Date ""
Rev ""
Comp ""
Comment1 ""
Comment2 ""
Comment3 ""
Comment4 ""
$EndDescr
$Comp
L regulator:MP1584 U1
U 1 1 5C47F0E1
P 5950 4000
F 0 "U1" H 6100 4300 50  0000 C CNN
F 1 "MP1584" H 5900 4300 50  0000 C CNN
F 2 "Custom:MP1584" H 5950 4000 50  0001 C CNN
F 3 "" H 5950 4000 50  0001 C CNN
	1    5950 4000
	-1   0    0    1   
$EndComp
Wire Wire Line
	5500 3850 5500 3600
$Comp
L regulator-rescue:Earth-power #PWR0101
U 1 1 5C47F194
P 5500 3600
F 0 "#PWR0101" H 5500 3350 50  0001 C CNN
F 1 "Earth" H 5500 3450 50  0001 C CNN
F 2 "" H 5500 3600 50  0001 C CNN
F 3 "~" H 5500 3600 50  0001 C CNN
	1    5500 3600
	-1   0    0    1   
$EndComp
$Comp
L regulator-rescue:GNDA-power #PWR0102
U 1 1 5C47F2B8
P 5750 3600
F 0 "#PWR0102" H 5750 3350 50  0001 C CNN
F 1 "GNDA" H 5755 3427 50  0000 C CNN
F 2 "" H 5750 3600 50  0001 C CNN
F 3 "" H 5750 3600 50  0001 C CNN
	1    5750 3600
	-1   0    0    1   
$EndComp
$Comp
L regulator-rescue:GNDA-power #PWR0103
U 1 1 5C47F32E
P 5250 3600
F 0 "#PWR0103" H 5250 3350 50  0001 C CNN
F 1 "GNDA" H 5255 3427 50  0000 C CNN
F 2 "" H 5250 3600 50  0001 C CNN
F 3 "" H 5250 3600 50  0001 C CNN
	1    5250 3600
	-1   0    0    1   
$EndComp
Wire Wire Line
	5650 4050 4950 4050
Wire Wire Line
	5650 3950 5250 3950
$Comp
L regulator-rescue:R-Device R4
U 1 1 5C47F4F9
P 5250 3800
F 0 "R4" H 5300 3850 50  0000 L CNN
F 1 "100k" H 5300 3750 50  0000 L CNN
F 2 "Custom:R_0805_2012Metric_3D" V 5180 3800 50  0001 C CNN
F 3 "~" H 5250 3800 50  0001 C CNN
	1    5250 3800
	1    0    0    -1  
$EndComp
Wire Wire Line
	5250 3650 5250 3600
$Comp
L regulator-rescue:C-Device C1
U 1 1 5C47F82B
P 4950 3900
F 0 "C1" H 5050 3950 50  0000 L CNN
F 1 "10u" H 5050 3850 50  0000 L CNN
F 2 "Custom:C_0805_2012Metric_3D" H 4988 3750 50  0001 C CNN
F 3 "~" H 4950 3900 50  0001 C CNN
	1    4950 3900
	1    0    0    -1  
$EndComp
Connection ~ 5500 3600
Wire Wire Line
	5500 3600 5750 3600
Wire Wire Line
	5500 3850 5650 3850
$Comp
L regulator-rescue:Earth-power #PWR0104
U 1 1 5C47FB9C
P 4950 3600
F 0 "#PWR0104" H 4950 3350 50  0001 C CNN
F 1 "Earth" H 4950 3450 50  0001 C CNN
F 2 "" H 4950 3600 50  0001 C CNN
F 3 "~" H 4950 3600 50  0001 C CNN
	1    4950 3600
	-1   0    0    1   
$EndComp
Wire Wire Line
	4950 3600 4950 3750
Wire Wire Line
	5650 4150 5450 4150
Wire Wire Line
	5450 4150 5450 4550
Wire Wire Line
	5450 4550 5800 4550
$Comp
L regulator-rescue:C-Device C4
U 1 1 5C47FD8E
P 5950 4550
F 0 "C4" V 6000 4450 50  0000 C CNN
F 1 "100n" V 6100 4550 50  0000 C CNN
F 2 "Custom:C_0805_2012Metric_3D" H 5988 4400 50  0001 C CNN
F 3 "~" H 5950 4550 50  0001 C CNN
	1    5950 4550
	0    1    1    0   
$EndComp
Connection ~ 4950 4050
$Comp
L regulator-rescue:R-Device R5
U 1 1 5C4801DA
P 4950 4200
F 0 "R5" H 5020 4246 50  0000 L CNN
F 1 "100k" H 5020 4155 50  0000 L CNN
F 2 "Custom:R_0805_2012Metric_3D" V 4880 4200 50  0001 C CNN
F 3 "~" H 4950 4200 50  0001 C CNN
	1    4950 4200
	1    0    0    -1  
$EndComp
Wire Wire Line
	6250 4050 6300 4050
Wire Wire Line
	6300 4050 6300 4350
Wire Wire Line
	6300 4350 4950 4350
$Comp
L regulator-rescue:R-Device R6
U 1 1 5C4803D4
P 4950 4500
F 0 "R6" H 5020 4546 50  0000 L CNN
F 1 "24.9k" H 5020 4455 50  0000 L CNN
F 2 "Custom:R_0805_2012Metric_3D" V 4880 4500 50  0001 C CNN
F 3 "~" H 4950 4500 50  0001 C CNN
	1    4950 4500
	1    0    0    -1  
$EndComp
Connection ~ 4950 4350
$Comp
L regulator-rescue:GNDA-power #PWR0105
U 1 1 5C480471
P 4950 4650
F 0 "#PWR0105" H 4950 4400 50  0001 C CNN
F 1 "GNDA" H 4955 4477 50  0000 C CNN
F 2 "" H 4950 4650 50  0001 C CNN
F 3 "" H 4950 4650 50  0001 C CNN
	1    4950 4650
	1    0    0    -1  
$EndComp
Wire Wire Line
	6250 4150 6250 4550
Wire Wire Line
	6250 4550 6100 4550
$Comp
L regulator-rescue:L-Device L1
U 1 1 5C480972
P 6550 4550
F 0 "L1" V 6740 4550 50  0000 C CNN
F 1 "15u" V 6649 4550 50  0000 C CNN
F 2 "Custom:BCRH104R-150M-NL" H 6550 4550 50  0001 C CNN
F 3 "~" H 6550 4550 50  0001 C CNN
	1    6550 4550
	0    -1   -1   0   
$EndComp
$Comp
L regulator-rescue:D_Schottky-Device D1
U 1 1 5C480B0E
P 6250 4700
F 0 "D1" V 6204 4779 50  0000 L CNN
F 1 "B340A-13-F" V 6295 4779 50  0000 L CNN
F 2 "Custom:DO-214AC(SMA)" H 6250 4700 50  0001 C CNN
F 3 "~" H 6250 4700 50  0001 C CNN
	1    6250 4700
	0    1    1    0   
$EndComp
Connection ~ 6250 4550
Wire Wire Line
	6400 4550 6250 4550
$Comp
L regulator-rescue:Earth-power #PWR0106
U 1 1 5C480E0E
P 6250 4850
F 0 "#PWR0106" H 6250 4600 50  0001 C CNN
F 1 "Earth" H 6250 4700 50  0001 C CNN
F 2 "" H 6250 4850 50  0001 C CNN
F 3 "~" H 6250 4850 50  0001 C CNN
	1    6250 4850
	1    0    0    -1  
$EndComp
$Comp
L regulator-rescue:C-Device C2
U 1 1 5C480EB7
P 6850 4700
F 0 "C2" H 6965 4746 50  0000 L CNN
F 1 "22u" H 6965 4655 50  0000 L CNN
F 2 "Custom:C_1206_3216Metric_3D" H 6888 4550 50  0001 C CNN
F 3 "~" H 6850 4700 50  0001 C CNN
	1    6850 4700
	1    0    0    -1  
$EndComp
$Comp
L regulator-rescue:R-Device R1
U 1 1 5C480F26
P 7100 4400
F 0 "R1" H 7170 4446 50  0000 L CNN
F 1 "120k" H 7170 4355 50  0000 L CNN
F 2 "Custom:R_0805_2012Metric_3D" V 7030 4400 50  0001 C CNN
F 3 "~" H 7100 4400 50  0001 C CNN
	1    7100 4400
	1    0    0    -1  
$EndComp
Wire Wire Line
	6700 4550 6850 4550
Wire Wire Line
	6250 3850 6550 3850
Wire Wire Line
	6550 3850 6550 4250
Wire Wire Line
	6550 4250 7100 4250
$Comp
L regulator-rescue:R-Device R2
U 1 1 5C482C18
P 6550 3700
F 0 "R2" H 6620 3746 50  0000 L CNN
F 1 "40.2k" H 6620 3655 50  0000 L CNN
F 2 "Custom:R_0805_2012Metric_3D" V 6480 3700 50  0001 C CNN
F 3 "~" H 6550 3700 50  0001 C CNN
	1    6550 3700
	1    0    0    -1  
$EndComp
Connection ~ 6550 3850
$Comp
L regulator-rescue:GNDA-power #PWR0107
U 1 1 5C482CCB
P 6550 3550
F 0 "#PWR0107" H 6550 3300 50  0001 C CNN
F 1 "GNDA" H 6555 3377 50  0000 C CNN
F 2 "" H 6550 3550 50  0001 C CNN
F 3 "" H 6550 3550 50  0001 C CNN
	1    6550 3550
	-1   0    0    1   
$EndComp
Wire Wire Line
	6250 3950 6750 3950
$Comp
L regulator-rescue:GNDA-power #PWR0108
U 1 1 5C4830EC
P 7650 3950
F 0 "#PWR0108" H 7650 3700 50  0001 C CNN
F 1 "GNDA" V 7655 3822 50  0000 R CNN
F 2 "" H 7650 3950 50  0001 C CNN
F 3 "" H 7650 3950 50  0001 C CNN
	1    7650 3950
	0    -1   -1   0   
$EndComp
Wire Wire Line
	7500 4050 7500 3950
Wire Wire Line
	7500 3850 7450 3850
Connection ~ 7500 3950
Wire Wire Line
	7500 3950 7500 3850
$Comp
L regulator-rescue:R-Device R3
U 1 1 5C483517
P 7300 3850
F 0 "R3" V 7200 3800 50  0000 C CNN
F 1 "100k" V 7200 3950 50  0000 C CNN
F 2 "Custom:R_0805_2012Metric_3D" V 7230 3850 50  0001 C CNN
F 3 "~" H 7300 3850 50  0001 C CNN
	1    7300 3850
	0    1    1    0   
$EndComp
$Comp
L regulator-rescue:C-Device C3
U 1 1 5C48397B
P 6950 3850
F 0 "C3" V 6900 3950 50  0000 C CNN
F 1 "150p" V 6800 3900 50  0000 C CNN
F 2 "Custom:C_0805_2012Metric_3D" H 6988 3700 50  0001 C CNN
F 3 "~" H 6950 3850 50  0001 C CNN
	1    6950 3850
	0    1    1    0   
$EndComp
$Comp
L regulator-rescue:C-Device C6
U 1 1 5C483A14
P 7150 4050
F 0 "C6" V 7100 3950 50  0000 C CNN
F 1 "NS" V 7100 4150 50  0000 C CNN
F 2 "Custom:C_0805_2012Metric_3D" H 7188 3900 50  0001 C CNN
F 3 "~" H 7150 4050 50  0001 C CNN
	1    7150 4050
	0    1    1    0   
$EndComp
Wire Wire Line
	7300 4050 7500 4050
Wire Wire Line
	7000 4050 6750 4050
Wire Wire Line
	6750 4050 6750 3950
Wire Wire Line
	6750 3850 6800 3850
Connection ~ 6750 3950
Wire Wire Line
	6750 3950 6750 3850
Wire Wire Line
	7100 3850 7150 3850
Wire Wire Line
	7650 3950 7500 3950
Connection ~ 6850 4550
Wire Wire Line
	6850 4550 7100 4550
$Comp
L regulator-rescue:Earth-power #PWR0109
U 1 1 5C4898BF
P 6850 4850
F 0 "#PWR0109" H 6850 4600 50  0001 C CNN
F 1 "Earth" H 6850 4700 50  0001 C CNN
F 2 "" H 6850 4850 50  0001 C CNN
F 3 "~" H 6850 4850 50  0001 C CNN
	1    6850 4850
	1    0    0    -1  
$EndComp
$Comp
L regulator:WJ250B-3.50-5P CON1
U 1 1 5C48D0B1
P 4000 3850
F 0 "CON1" H 4000 3600 50  0000 C CNN
F 1 "WJ250B-3.50-5P" H 4000 4200 50  0000 C CNN
F 2 "Custom:WJ250B-3.50-5P" H 4000 3850 50  0001 C CNN
F 3 "" H 4000 3850 50  0001 C CNN
	1    4000 3850
	1    0    0    -1  
$EndComp
Wire Wire Line
	4750 4050 4950 4050
Wire Wire Line
	3700 4050 3700 4250
Wire Wire Line
	4300 3950 4300 4250
Wire Wire Line
	3700 3850 3700 3650
Connection ~ 3700 3650
Wire Wire Line
	3700 3650 3550 3650
$Comp
L regulator-rescue:Earth-power #PWR0110
U 1 1 5C498988
P 3550 3650
F 0 "#PWR0110" H 3550 3400 50  0001 C CNN
F 1 "Earth" H 3550 3500 50  0001 C CNN
F 2 "" H 3550 3650 50  0001 C CNN
F 3 "~" H 3550 3650 50  0001 C CNN
	1    3550 3650
	0    1    1    0   
$EndComp
$Comp
L regulator-rescue:+12V-power #PWR0111
U 1 1 5C49EF61
P 4300 3750
F 0 "#PWR0111" H 4300 3600 50  0001 C CNN
F 1 "+12V" V 4315 3878 50  0000 L CNN
F 2 "" H 4300 3750 50  0001 C CNN
F 3 "" H 4300 3750 50  0001 C CNN
	1    4300 3750
	0    1    1    0   
$EndComp
$Comp
L regulator-rescue:+12V-power #PWR0112
U 1 1 5C49EFCE
P 4750 4050
F 0 "#PWR0112" H 4750 3900 50  0001 C CNN
F 1 "+12V" V 4765 4178 50  0000 L CNN
F 2 "" H 4750 4050 50  0001 C CNN
F 3 "" H 4750 4050 50  0001 C CNN
	1    4750 4050
	0    -1   -1   0   
$EndComp
Wire Wire Line
	3700 4250 4000 4250
$Comp
L power:+5V #PWR0113
U 1 1 5C48BA2E
P 7100 4550
F 0 "#PWR0113" H 7100 4400 50  0001 C CNN
F 1 "+5V" V 7115 4678 50  0000 L CNN
F 2 "" H 7100 4550 50  0001 C CNN
F 3 "" H 7100 4550 50  0001 C CNN
	1    7100 4550
	0    1    1    0   
$EndComp
Connection ~ 7100 4550
$Comp
L power:+5V #PWR0114
U 1 1 5C48BAAA
P 4000 4250
F 0 "#PWR0114" H 4000 4100 50  0001 C CNN
F 1 "+5V" H 4015 4423 50  0000 C CNN
F 2 "" H 4000 4250 50  0001 C CNN
F 3 "" H 4000 4250 50  0001 C CNN
	1    4000 4250
	-1   0    0    1   
$EndComp
Connection ~ 4000 4250
Wire Wire Line
	4000 4250 4300 4250
$Comp
L regulator-rescue:GNDA-power #PWR0115
U 1 1 5C491957
P 5950 3650
F 0 "#PWR0115" H 5950 3400 50  0001 C CNN
F 1 "GNDA" H 5955 3477 50  0000 C CNN
F 2 "" H 5950 3650 50  0001 C CNN
F 3 "" H 5950 3650 50  0001 C CNN
	1    5950 3650
	-1   0    0    1   
$EndComp
$EndSCHEMATC
