(module M3_Hole (layer F.Cu) (tedit 5C48B61B)
  (fp_text reference REF** (at 0 0.5) (layer Dwgs.User)
    (effects (font (size 1 1) (thickness 0.15)))
  )
  (fp_text value M3_Hole (at 0 -0.5) (layer F.Fab)
    (effects (font (size 1 1) (thickness 0.15)))
  )
  (pad "" thru_hole circle (at 0 0) (size 4 4) (drill 3) (layers *.Cu *.Mask)
    (clearance 0.3))
)
