M48
; DRILL file {KiCad 5.1.2} date Tue 06 Aug 2019 10:38:15 PM EEST
; FORMAT={-:-/ absolute / inch / decimal}
; #@! TF.CreationDate,2019-08-06T22:38:15+03:00
; #@! TF.GenerationSoftware,Kicad,Pcbnew,5.1.2
FMAT,2
INCH
T1C0.0157
T2C0.0433
T3C0.1181
%
G90
G05
T1
X5.91Y-3.38
X5.91Y-3.43
X5.91Y-3.48
X5.91Y-3.53
X5.91Y-3.58
X5.925Y-3.245
X5.96Y-3.38
X5.96Y-3.43
X5.96Y-3.48
X5.96Y-3.53
X5.96Y-3.58
X6.01Y-3.38
X6.01Y-3.43
X6.01Y-3.48
X6.01Y-3.53
X6.01Y-3.58
X6.06Y-3.38
X6.06Y-3.43
X6.06Y-3.48
X6.06Y-3.53
X6.06Y-3.58
X6.11Y-3.38
X6.11Y-3.43
X6.11Y-3.48
X6.11Y-3.53
X6.11Y-3.58
X6.22Y-3.4313
X6.22Y-3.4663
X6.22Y-3.5013
X6.255Y-3.4313
X6.255Y-3.4663
X6.255Y-3.5013
X6.275Y-3.725
X6.29Y-3.4313
X6.29Y-3.4663
X6.29Y-3.5013
X6.325Y-3.4313
X6.325Y-3.4663
X6.325Y-3.5013
X6.475Y-3.15
X6.625Y-3.05
X6.69Y-3.755
X6.69Y-3.795
X6.725Y-3.735
X6.725Y-3.775
X6.725Y-3.815
T2
X6.1994Y-4.2219
X6.3372Y-4.025
X6.475Y-4.2219
X6.6128Y-4.025
X6.7506Y-4.2219
T3
X5.95Y-3.125
X6.975Y-3.125
X5.95Y-4.25
X6.975Y-4.25
T0
M30
