G04 #@! TF.GenerationSoftware,KiCad,Pcbnew,5.1.2*
G04 #@! TF.CreationDate,2019-08-06T22:38:10+03:00*
G04 #@! TF.ProjectId,regulator,72656775-6c61-4746-9f72-2e6b69636164,rev?*
G04 #@! TF.SameCoordinates,Original*
G04 #@! TF.FileFunction,Legend,Top*
G04 #@! TF.FilePolarity,Positive*
%FSLAX46Y46*%
G04 Gerber Fmt 4.6, Leading zero omitted, Abs format (unit mm)*
G04 Created by KiCad (PCBNEW 5.1.2) date 2019-08-06 22:38:10*
%MOMM*%
%LPD*%
G04 APERTURE LIST*
%ADD10C,0.180000*%
%ADD11C,0.120000*%
%ADD12C,0.150000*%
%ADD13C,0.127000*%
%ADD14C,0.360000*%
%ADD15C,0.119380*%
G04 APERTURE END LIST*
D10*
X154422619Y-94893333D02*
X154422619Y-94417142D01*
X153946428Y-94369523D01*
X153994047Y-94417142D01*
X154041666Y-94512380D01*
X154041666Y-94750476D01*
X153994047Y-94845714D01*
X153946428Y-94893333D01*
X153851190Y-94940952D01*
X153613095Y-94940952D01*
X153517857Y-94893333D01*
X153470238Y-94845714D01*
X153422619Y-94750476D01*
X153422619Y-94512380D01*
X153470238Y-94417142D01*
X153517857Y-94369523D01*
X154422619Y-95226666D02*
X153422619Y-95560000D01*
X154422619Y-95893333D01*
X153422619Y-97560000D02*
X153898809Y-97226666D01*
X153422619Y-96988571D02*
X154422619Y-96988571D01*
X154422619Y-97369523D01*
X154375000Y-97464761D01*
X154327380Y-97512380D01*
X154232142Y-97560000D01*
X154089285Y-97560000D01*
X153994047Y-97512380D01*
X153946428Y-97464761D01*
X153898809Y-97369523D01*
X153898809Y-96988571D01*
X153470238Y-98369523D02*
X153422619Y-98274285D01*
X153422619Y-98083809D01*
X153470238Y-97988571D01*
X153565476Y-97940952D01*
X153946428Y-97940952D01*
X154041666Y-97988571D01*
X154089285Y-98083809D01*
X154089285Y-98274285D01*
X154041666Y-98369523D01*
X153946428Y-98417142D01*
X153851190Y-98417142D01*
X153755952Y-97940952D01*
X154089285Y-99274285D02*
X153279761Y-99274285D01*
X153184523Y-99226666D01*
X153136904Y-99179047D01*
X153089285Y-99083809D01*
X153089285Y-98940952D01*
X153136904Y-98845714D01*
X153470238Y-99274285D02*
X153422619Y-99179047D01*
X153422619Y-98988571D01*
X153470238Y-98893333D01*
X153517857Y-98845714D01*
X153613095Y-98798095D01*
X153898809Y-98798095D01*
X153994047Y-98845714D01*
X154041666Y-98893333D01*
X154089285Y-98988571D01*
X154089285Y-99179047D01*
X154041666Y-99274285D01*
X154089285Y-100179047D02*
X153422619Y-100179047D01*
X154089285Y-99750476D02*
X153565476Y-99750476D01*
X153470238Y-99798095D01*
X153422619Y-99893333D01*
X153422619Y-100036190D01*
X153470238Y-100131428D01*
X153517857Y-100179047D01*
X153422619Y-100798095D02*
X153470238Y-100702857D01*
X153565476Y-100655238D01*
X154422619Y-100655238D01*
X153422619Y-101607619D02*
X153946428Y-101607619D01*
X154041666Y-101560000D01*
X154089285Y-101464761D01*
X154089285Y-101274285D01*
X154041666Y-101179047D01*
X153470238Y-101607619D02*
X153422619Y-101512380D01*
X153422619Y-101274285D01*
X153470238Y-101179047D01*
X153565476Y-101131428D01*
X153660714Y-101131428D01*
X153755952Y-101179047D01*
X153803571Y-101274285D01*
X153803571Y-101512380D01*
X153851190Y-101607619D01*
X154089285Y-101940952D02*
X154089285Y-102321904D01*
X154422619Y-102083809D02*
X153565476Y-102083809D01*
X153470238Y-102131428D01*
X153422619Y-102226666D01*
X153422619Y-102321904D01*
X153422619Y-102798095D02*
X153470238Y-102702857D01*
X153517857Y-102655238D01*
X153613095Y-102607619D01*
X153898809Y-102607619D01*
X153994047Y-102655238D01*
X154041666Y-102702857D01*
X154089285Y-102798095D01*
X154089285Y-102940952D01*
X154041666Y-103036190D01*
X153994047Y-103083809D01*
X153898809Y-103131428D01*
X153613095Y-103131428D01*
X153517857Y-103083809D01*
X153470238Y-103036190D01*
X153422619Y-102940952D01*
X153422619Y-102798095D01*
X153422619Y-103560000D02*
X154089285Y-103560000D01*
X153898809Y-103560000D02*
X153994047Y-103607619D01*
X154041666Y-103655238D01*
X154089285Y-103750476D01*
X154089285Y-103845714D01*
X151742619Y-93607619D02*
X152742619Y-93607619D01*
X151742619Y-94179047D01*
X152742619Y-94179047D01*
X151742619Y-94655238D02*
X152409285Y-94655238D01*
X152742619Y-94655238D02*
X152695000Y-94607619D01*
X152647380Y-94655238D01*
X152695000Y-94702857D01*
X152742619Y-94655238D01*
X152647380Y-94655238D01*
X151742619Y-95131428D02*
X152742619Y-95131428D01*
X152123571Y-95226666D02*
X151742619Y-95512380D01*
X152409285Y-95512380D02*
X152028333Y-95131428D01*
X151742619Y-96083809D02*
X151790238Y-95988571D01*
X151885476Y-95940952D01*
X152742619Y-95940952D01*
X151742619Y-96893333D02*
X152266428Y-96893333D01*
X152361666Y-96845714D01*
X152409285Y-96750476D01*
X152409285Y-96560000D01*
X152361666Y-96464761D01*
X151790238Y-96893333D02*
X151742619Y-96798095D01*
X151742619Y-96560000D01*
X151790238Y-96464761D01*
X151885476Y-96417142D01*
X151980714Y-96417142D01*
X152075952Y-96464761D01*
X152123571Y-96560000D01*
X152123571Y-96798095D01*
X152171190Y-96893333D01*
X151790238Y-97321904D02*
X151742619Y-97417142D01*
X151742619Y-97607619D01*
X151790238Y-97702857D01*
X151885476Y-97750476D01*
X151933095Y-97750476D01*
X152028333Y-97702857D01*
X152075952Y-97607619D01*
X152075952Y-97464761D01*
X152123571Y-97369523D01*
X152218809Y-97321904D01*
X152266428Y-97321904D01*
X152361666Y-97369523D01*
X152409285Y-97464761D01*
X152409285Y-97607619D01*
X152361666Y-97702857D01*
X151742619Y-98940952D02*
X152742619Y-98940952D01*
X152266428Y-98940952D02*
X152266428Y-99512380D01*
X151742619Y-99512380D02*
X152742619Y-99512380D01*
X151742619Y-100417142D02*
X152266428Y-100417142D01*
X152361666Y-100369523D01*
X152409285Y-100274285D01*
X152409285Y-100083809D01*
X152361666Y-99988571D01*
X151790238Y-100417142D02*
X151742619Y-100321904D01*
X151742619Y-100083809D01*
X151790238Y-99988571D01*
X151885476Y-99940952D01*
X151980714Y-99940952D01*
X152075952Y-99988571D01*
X152123571Y-100083809D01*
X152123571Y-100321904D01*
X152171190Y-100417142D01*
X151742619Y-101036190D02*
X151790238Y-100940952D01*
X151885476Y-100893333D01*
X152742619Y-100893333D01*
X151742619Y-101560000D02*
X151790238Y-101464761D01*
X151837857Y-101417142D01*
X151933095Y-101369523D01*
X152218809Y-101369523D01*
X152314047Y-101417142D01*
X152361666Y-101464761D01*
X152409285Y-101560000D01*
X152409285Y-101702857D01*
X152361666Y-101798095D01*
X152314047Y-101845714D01*
X152218809Y-101893333D01*
X151933095Y-101893333D01*
X151837857Y-101845714D01*
X151790238Y-101798095D01*
X151742619Y-101702857D01*
X151742619Y-101560000D01*
X152409285Y-102321904D02*
X151742619Y-102321904D01*
X152314047Y-102321904D02*
X152361666Y-102369523D01*
X152409285Y-102464761D01*
X152409285Y-102607619D01*
X152361666Y-102702857D01*
X152266428Y-102750476D01*
X151742619Y-102750476D01*
X151790238Y-103607619D02*
X151742619Y-103512380D01*
X151742619Y-103321904D01*
X151790238Y-103226666D01*
X151885476Y-103179047D01*
X152266428Y-103179047D01*
X152361666Y-103226666D01*
X152409285Y-103321904D01*
X152409285Y-103512380D01*
X152361666Y-103607619D01*
X152266428Y-103655238D01*
X152171190Y-103655238D01*
X152075952Y-103179047D01*
X152409285Y-104083809D02*
X151742619Y-104083809D01*
X152314047Y-104083809D02*
X152361666Y-104131428D01*
X152409285Y-104226666D01*
X152409285Y-104369523D01*
X152361666Y-104464761D01*
X152266428Y-104512380D01*
X151742619Y-104512380D01*
D11*
X160095000Y-80718922D02*
X160095000Y-81236078D01*
X158675000Y-80718922D02*
X158675000Y-81236078D01*
X163905000Y-89578922D02*
X163905000Y-90096078D01*
X162485000Y-89578922D02*
X162485000Y-90096078D01*
X158190000Y-80718922D02*
X158190000Y-81236078D01*
X156770000Y-80718922D02*
X156770000Y-81236078D01*
X162183578Y-95325000D02*
X161666422Y-95325000D01*
X162183578Y-93905000D02*
X161666422Y-93905000D01*
X174462064Y-96795000D02*
X173257936Y-96795000D01*
X174462064Y-94975000D02*
X173257936Y-94975000D01*
X160580000Y-81236078D02*
X160580000Y-80718922D01*
X162000000Y-81236078D02*
X162000000Y-80718922D01*
X163905000Y-80718922D02*
X163905000Y-81236078D01*
X162485000Y-80718922D02*
X162485000Y-81236078D01*
X156283922Y-92635000D02*
X156801078Y-92635000D01*
X156283922Y-94055000D02*
X156801078Y-94055000D01*
X154865000Y-81236078D02*
X154865000Y-80718922D01*
X156285000Y-81236078D02*
X156285000Y-80718922D01*
X154380000Y-82623922D02*
X154380000Y-83141078D01*
X152960000Y-82623922D02*
X152960000Y-83141078D01*
X151055000Y-83619078D02*
X151055000Y-83101922D01*
X152475000Y-83619078D02*
X152475000Y-83101922D01*
D12*
X154965000Y-110735000D02*
X173965000Y-110735000D01*
X173965000Y-98735000D02*
X154965000Y-98735000D01*
X154965000Y-98735000D02*
X154965000Y-110735000D01*
X173965000Y-110735000D02*
X173965000Y-98735000D01*
X172240000Y-84765000D02*
X172240000Y-83265000D01*
X175740000Y-84765000D02*
X172240000Y-84765000D01*
X175740000Y-83265000D02*
X175740000Y-84765000D01*
X175740000Y-91765000D02*
X175740000Y-93265000D01*
X172240000Y-91765000D02*
X175740000Y-91765000D01*
X172240000Y-93265000D02*
X172240000Y-91765000D01*
X171490000Y-93265000D02*
X172240000Y-93265000D01*
X176490000Y-83265000D02*
X175740000Y-83265000D01*
X177490000Y-88265000D02*
G75*
G03X177490000Y-88265000I-3500000J0D01*
G01*
X176490000Y-83265000D02*
X178990000Y-85765000D01*
X168990000Y-90765000D02*
X171490000Y-93265000D01*
X178990000Y-93265000D02*
X178990000Y-85765000D01*
X175740000Y-93265000D02*
X178990000Y-93265000D01*
X168990000Y-83265000D02*
X168990000Y-90765000D01*
X172240000Y-83265000D02*
X168990000Y-83265000D01*
D13*
X166370000Y-93466920D02*
X166370000Y-93670120D01*
X164465000Y-94990920D02*
X164465000Y-90418920D01*
X164465000Y-90418920D02*
X165100000Y-90418920D01*
X168275000Y-92044520D02*
X164465000Y-92044520D01*
X168275000Y-91714320D02*
X164465000Y-91714320D01*
X167640000Y-94990920D02*
X168275000Y-94990920D01*
X168275000Y-94990920D02*
X168275000Y-90418920D01*
X168275000Y-90418920D02*
X167640000Y-90418920D01*
X165100000Y-94990920D02*
X164465000Y-94990920D01*
X166370000Y-92831920D02*
X165895020Y-93466920D01*
X165895020Y-93466920D02*
X166370000Y-93466920D01*
X166370000Y-93466920D02*
X166844980Y-93466920D01*
X166844980Y-93466920D02*
X166370000Y-92831920D01*
X166370000Y-92831920D02*
X166052500Y-92831920D01*
X166052500Y-92831920D02*
X165895020Y-92989400D01*
X166370000Y-92831920D02*
X166687500Y-92831920D01*
X166687500Y-92831920D02*
X166844980Y-92674440D01*
X166370000Y-92831920D02*
X166370000Y-91721940D01*
D12*
X156845000Y-90076000D02*
X156845000Y-86012000D01*
X161925000Y-86012000D02*
X161925000Y-90076000D01*
D14*
X162485605Y-85631000D02*
G75*
G03X162485605Y-85631000I-179605J0D01*
G01*
D12*
X159218333Y-79097142D02*
X159170714Y-79144761D01*
X159027857Y-79192380D01*
X158932619Y-79192380D01*
X158789761Y-79144761D01*
X158694523Y-79049523D01*
X158646904Y-78954285D01*
X158599285Y-78763809D01*
X158599285Y-78620952D01*
X158646904Y-78430476D01*
X158694523Y-78335238D01*
X158789761Y-78240000D01*
X158932619Y-78192380D01*
X159027857Y-78192380D01*
X159170714Y-78240000D01*
X159218333Y-78287619D01*
X160075476Y-78192380D02*
X159885000Y-78192380D01*
X159789761Y-78240000D01*
X159742142Y-78287619D01*
X159646904Y-78430476D01*
X159599285Y-78620952D01*
X159599285Y-79001904D01*
X159646904Y-79097142D01*
X159694523Y-79144761D01*
X159789761Y-79192380D01*
X159980238Y-79192380D01*
X160075476Y-79144761D01*
X160123095Y-79097142D01*
X160170714Y-79001904D01*
X160170714Y-78763809D01*
X160123095Y-78668571D01*
X160075476Y-78620952D01*
X159980238Y-78573333D01*
X159789761Y-78573333D01*
X159694523Y-78620952D01*
X159646904Y-78668571D01*
X159599285Y-78763809D01*
X165202142Y-89066666D02*
X165249761Y-89114285D01*
X165297380Y-89257142D01*
X165297380Y-89352380D01*
X165249761Y-89495238D01*
X165154523Y-89590476D01*
X165059285Y-89638095D01*
X164868809Y-89685714D01*
X164725952Y-89685714D01*
X164535476Y-89638095D01*
X164440238Y-89590476D01*
X164345000Y-89495238D01*
X164297380Y-89352380D01*
X164297380Y-89257142D01*
X164345000Y-89114285D01*
X164392619Y-89066666D01*
X164630714Y-88209523D02*
X165297380Y-88209523D01*
X164249761Y-88447619D02*
X164964047Y-88685714D01*
X164964047Y-88066666D01*
X157313333Y-79097142D02*
X157265714Y-79144761D01*
X157122857Y-79192380D01*
X157027619Y-79192380D01*
X156884761Y-79144761D01*
X156789523Y-79049523D01*
X156741904Y-78954285D01*
X156694285Y-78763809D01*
X156694285Y-78620952D01*
X156741904Y-78430476D01*
X156789523Y-78335238D01*
X156884761Y-78240000D01*
X157027619Y-78192380D01*
X157122857Y-78192380D01*
X157265714Y-78240000D01*
X157313333Y-78287619D01*
X157646666Y-78192380D02*
X158265714Y-78192380D01*
X157932380Y-78573333D01*
X158075238Y-78573333D01*
X158170476Y-78620952D01*
X158218095Y-78668571D01*
X158265714Y-78763809D01*
X158265714Y-79001904D01*
X158218095Y-79097142D01*
X158170476Y-79144761D01*
X158075238Y-79192380D01*
X157789523Y-79192380D01*
X157694285Y-79144761D01*
X157646666Y-79097142D01*
X161758333Y-96622142D02*
X161710714Y-96669761D01*
X161567857Y-96717380D01*
X161472619Y-96717380D01*
X161329761Y-96669761D01*
X161234523Y-96574523D01*
X161186904Y-96479285D01*
X161139285Y-96288809D01*
X161139285Y-96145952D01*
X161186904Y-95955476D01*
X161234523Y-95860238D01*
X161329761Y-95765000D01*
X161472619Y-95717380D01*
X161567857Y-95717380D01*
X161710714Y-95765000D01*
X161758333Y-95812619D01*
X162710714Y-96717380D02*
X162139285Y-96717380D01*
X162425000Y-96717380D02*
X162425000Y-95717380D01*
X162329761Y-95860238D01*
X162234523Y-95955476D01*
X162139285Y-96003095D01*
X173693333Y-98062142D02*
X173645714Y-98109761D01*
X173502857Y-98157380D01*
X173407619Y-98157380D01*
X173264761Y-98109761D01*
X173169523Y-98014523D01*
X173121904Y-97919285D01*
X173074285Y-97728809D01*
X173074285Y-97585952D01*
X173121904Y-97395476D01*
X173169523Y-97300238D01*
X173264761Y-97205000D01*
X173407619Y-97157380D01*
X173502857Y-97157380D01*
X173645714Y-97205000D01*
X173693333Y-97252619D01*
X174074285Y-97252619D02*
X174121904Y-97205000D01*
X174217142Y-97157380D01*
X174455238Y-97157380D01*
X174550476Y-97205000D01*
X174598095Y-97252619D01*
X174645714Y-97347857D01*
X174645714Y-97443095D01*
X174598095Y-97585952D01*
X174026666Y-98157380D01*
X174645714Y-98157380D01*
X161123333Y-79192380D02*
X160790000Y-78716190D01*
X160551904Y-79192380D02*
X160551904Y-78192380D01*
X160932857Y-78192380D01*
X161028095Y-78240000D01*
X161075714Y-78287619D01*
X161123333Y-78382857D01*
X161123333Y-78525714D01*
X161075714Y-78620952D01*
X161028095Y-78668571D01*
X160932857Y-78716190D01*
X160551904Y-78716190D01*
X161980476Y-78192380D02*
X161790000Y-78192380D01*
X161694761Y-78240000D01*
X161647142Y-78287619D01*
X161551904Y-78430476D01*
X161504285Y-78620952D01*
X161504285Y-79001904D01*
X161551904Y-79097142D01*
X161599523Y-79144761D01*
X161694761Y-79192380D01*
X161885238Y-79192380D01*
X161980476Y-79144761D01*
X162028095Y-79097142D01*
X162075714Y-79001904D01*
X162075714Y-78763809D01*
X162028095Y-78668571D01*
X161980476Y-78620952D01*
X161885238Y-78573333D01*
X161694761Y-78573333D01*
X161599523Y-78620952D01*
X161551904Y-78668571D01*
X161504285Y-78763809D01*
X163028333Y-79192380D02*
X162695000Y-78716190D01*
X162456904Y-79192380D02*
X162456904Y-78192380D01*
X162837857Y-78192380D01*
X162933095Y-78240000D01*
X162980714Y-78287619D01*
X163028333Y-78382857D01*
X163028333Y-78525714D01*
X162980714Y-78620952D01*
X162933095Y-78668571D01*
X162837857Y-78716190D01*
X162456904Y-78716190D01*
X163933095Y-78192380D02*
X163456904Y-78192380D01*
X163409285Y-78668571D01*
X163456904Y-78620952D01*
X163552142Y-78573333D01*
X163790238Y-78573333D01*
X163885476Y-78620952D01*
X163933095Y-78668571D01*
X163980714Y-78763809D01*
X163980714Y-79001904D01*
X163933095Y-79097142D01*
X163885476Y-79144761D01*
X163790238Y-79192380D01*
X163552142Y-79192380D01*
X163456904Y-79144761D01*
X163409285Y-79097142D01*
X156424333Y-95448380D02*
X156091000Y-94972190D01*
X155852904Y-95448380D02*
X155852904Y-94448380D01*
X156233857Y-94448380D01*
X156329095Y-94496000D01*
X156376714Y-94543619D01*
X156424333Y-94638857D01*
X156424333Y-94781714D01*
X156376714Y-94876952D01*
X156329095Y-94924571D01*
X156233857Y-94972190D01*
X155852904Y-94972190D01*
X157281476Y-94781714D02*
X157281476Y-95448380D01*
X157043380Y-94400761D02*
X156805285Y-95115047D01*
X157424333Y-95115047D01*
X155408333Y-79192380D02*
X155075000Y-78716190D01*
X154836904Y-79192380D02*
X154836904Y-78192380D01*
X155217857Y-78192380D01*
X155313095Y-78240000D01*
X155360714Y-78287619D01*
X155408333Y-78382857D01*
X155408333Y-78525714D01*
X155360714Y-78620952D01*
X155313095Y-78668571D01*
X155217857Y-78716190D01*
X154836904Y-78716190D01*
X155741666Y-78192380D02*
X156360714Y-78192380D01*
X156027380Y-78573333D01*
X156170238Y-78573333D01*
X156265476Y-78620952D01*
X156313095Y-78668571D01*
X156360714Y-78763809D01*
X156360714Y-79001904D01*
X156313095Y-79097142D01*
X156265476Y-79144761D01*
X156170238Y-79192380D01*
X155884523Y-79192380D01*
X155789285Y-79144761D01*
X155741666Y-79097142D01*
X155408333Y-84272380D02*
X155075000Y-83796190D01*
X154836904Y-84272380D02*
X154836904Y-83272380D01*
X155217857Y-83272380D01*
X155313095Y-83320000D01*
X155360714Y-83367619D01*
X155408333Y-83462857D01*
X155408333Y-83605714D01*
X155360714Y-83700952D01*
X155313095Y-83748571D01*
X155217857Y-83796190D01*
X154836904Y-83796190D01*
X155789285Y-83367619D02*
X155836904Y-83320000D01*
X155932142Y-83272380D01*
X156170238Y-83272380D01*
X156265476Y-83320000D01*
X156313095Y-83367619D01*
X156360714Y-83462857D01*
X156360714Y-83558095D01*
X156313095Y-83700952D01*
X155741666Y-84272380D01*
X156360714Y-84272380D01*
X150567380Y-83986666D02*
X150091190Y-84320000D01*
X150567380Y-84558095D02*
X149567380Y-84558095D01*
X149567380Y-84177142D01*
X149615000Y-84081904D01*
X149662619Y-84034285D01*
X149757857Y-83986666D01*
X149900714Y-83986666D01*
X149995952Y-84034285D01*
X150043571Y-84081904D01*
X150091190Y-84177142D01*
X150091190Y-84558095D01*
X150567380Y-83034285D02*
X150567380Y-83605714D01*
X150567380Y-83320000D02*
X149567380Y-83320000D01*
X149710238Y-83415238D01*
X149805476Y-83510476D01*
X149853095Y-83605714D01*
X163250714Y-105092142D02*
X163203095Y-105139761D01*
X163060238Y-105187380D01*
X162965000Y-105187380D01*
X162822142Y-105139761D01*
X162726904Y-105044523D01*
X162679285Y-104949285D01*
X162631666Y-104758809D01*
X162631666Y-104615952D01*
X162679285Y-104425476D01*
X162726904Y-104330238D01*
X162822142Y-104235000D01*
X162965000Y-104187380D01*
X163060238Y-104187380D01*
X163203095Y-104235000D01*
X163250714Y-104282619D01*
X163869761Y-104187380D02*
X164060238Y-104187380D01*
X164155476Y-104235000D01*
X164250714Y-104330238D01*
X164298333Y-104520714D01*
X164298333Y-104854047D01*
X164250714Y-105044523D01*
X164155476Y-105139761D01*
X164060238Y-105187380D01*
X163869761Y-105187380D01*
X163774523Y-105139761D01*
X163679285Y-105044523D01*
X163631666Y-104854047D01*
X163631666Y-104520714D01*
X163679285Y-104330238D01*
X163774523Y-104235000D01*
X163869761Y-104187380D01*
X164726904Y-105187380D02*
X164726904Y-104187380D01*
X165298333Y-105187380D01*
X165298333Y-104187380D01*
X166298333Y-105187380D02*
X165726904Y-105187380D01*
X166012619Y-105187380D02*
X166012619Y-104187380D01*
X165917380Y-104330238D01*
X165822142Y-104425476D01*
X165726904Y-104473095D01*
X173823333Y-88717380D02*
X173347142Y-88717380D01*
X173347142Y-87717380D01*
X174680476Y-88717380D02*
X174109047Y-88717380D01*
X174394761Y-88717380D02*
X174394761Y-87717380D01*
X174299523Y-87860238D01*
X174204285Y-87955476D01*
X174109047Y-88003095D01*
D15*
X168092724Y-93448656D02*
X167091964Y-93448656D01*
X167091964Y-93210380D01*
X167139620Y-93067414D01*
X167234930Y-92972103D01*
X167330240Y-92924448D01*
X167520861Y-92876793D01*
X167663827Y-92876793D01*
X167854448Y-92924448D01*
X167949759Y-92972103D01*
X168045069Y-93067414D01*
X168092724Y-93210380D01*
X168092724Y-93448656D01*
X168092724Y-91923688D02*
X168092724Y-92495551D01*
X168092724Y-92209620D02*
X167091964Y-92209620D01*
X167234930Y-92304930D01*
X167330240Y-92400240D01*
X167377896Y-92495551D01*
D12*
X162433095Y-86447380D02*
X162433095Y-87256904D01*
X162480714Y-87352142D01*
X162528333Y-87399761D01*
X162623571Y-87447380D01*
X162814047Y-87447380D01*
X162909285Y-87399761D01*
X162956904Y-87352142D01*
X163004523Y-87256904D01*
X163004523Y-86447380D01*
X164004523Y-87447380D02*
X163433095Y-87447380D01*
X163718809Y-87447380D02*
X163718809Y-86447380D01*
X163623571Y-86590238D01*
X163528333Y-86685476D01*
X163433095Y-86733095D01*
M02*
